API
…
$labels
[1] "N/A" "Yes" "No" 

$levels
[1] "0" "1" "2" "3" "4" "5"

$labels
[1] "N/A (GQ/vacant)"                    "English Only"                      
[3] "Spanish"                            "Other Indo-European languages"     
[5] "Asian and Pacific Island languages" "Other Language"                    

dt_tbl

# A tibble: 51,580 × 10
   PWGTP GASP  JWAP  SEX   FER   HHL   state SEX_fac FER_fac HHL_fac        
   <chr> <chr> <chr> <chr> <chr> <chr> <chr> <fct>   <fct>   <fct>          
 1 69    3     0     2     0     0     01    Female  N/A     N/A (GQ/vacant)
 2 22    3     0     1     0     0     01    Male    N/A     N/A (GQ/vacant)
 3 45    3     0     2     1     0     01    Female  Yes     N/A (GQ/vacant)
 4 4     3     0     1     0     0     01    Male    N/A     N/A (GQ/vacant)
 5 47    3     0     1     0     0     01    Male    N/A     N/A (GQ/vacant)
 6 38    3     0     1     0     0     01    Male    N/A     N/A (GQ/vacant)
 7 13    3     0     2     0     0     01    Female  N/A     N/A (GQ/vacant)
 8 38    3     0     1     0     0     01    Male    N/A     N/A (GQ/vacant)
 9 66    3     0     1     0     0     01    Male    N/A     N/A (GQ/vacant)
10 31    3     0     2     0     0     01    Female  N/A     N/A (GQ/vacant)
# ℹ 51,570 more rows
…
