API
…
[1] "https://api.census.gov/data/2021/acs/acs1/pums?get=PWGTP,AGEP,GASP,GRPIP,JWMNP,FER,HHL,HISPEED,SCH,SCHL,SEX&for=State:1&&SCHL=24"

Warning: The `x` argument of `as_tibble.matrix()` must have unique column names if
`.name_repair` is omitted as of tibble 2.0.0.
ℹ Using compatibility `.name_repair`.

[1] "https://api.census.gov/data/2022/acs/acs1/pums?get=PWGTP,AGEP,GASP,GRPIP,JWMNP,FER,HHL,HISPEED,SCH,SCHL,SEX&for=State:1&&SCHL=24"

dt_tbl

# A tibble: 948 × 14
   PWGTP  AGEP  GASP GRPIP JWMNP    FER   HHL    HISPEED SCH   SCHL  SEX   V12  
   <dbl> <dbl> <dbl> <dbl> <chr>    <fct> <fct>  <fct>   <fct> <fct> <fct> <chr>
 1   180    93     3     0 6H 2M 0S N/A   N/A (… N/A (G… No, … Doct… Fema… 24   
 2    25    93     3     0 6H 2M 0S N/A   N/A (… N/A (G… No, … Doct… Fema… 24   
 3    19    50   470     0 6H 2M 0S No    Engli… Yes     No, … Doct… Fema… 24   
 4    64    48    40     0 6H 2M 0S N/A   Engli… Yes     No, … Doct… Male  24   
 5     6    64    60     0 6H 2M 0S N/A   Engli… Yes     No, … Doct… Male  24   
 6    74    61     3     0 6H 2M 0S N/A   Engli… Yes     No, … Doct… Male  24   
 7   237    34     3     0 6H 2M 0S No    Engli… Yes     No, … Doct… Fema… 24   
 8   191    45     3     0 6H 2M 0S No    Engli… Yes     No, … Doct… Fema… 24   
 9    58    30     3    13 6H 2M 0S No    Engli… Yes     No, … Doct… Fema… 24   
10    49    35     3    13 6H 2M 0S N/A   Engli… Yes     No, … Doct… Male  24   
# ℹ 938 more rows
# ℹ 2 more variables: state <chr>, year <dbl>
…
